{"success":true,"page":1,"limit":5,"total":106,"totalPages":22,"app":"all","shorts":[{"owner":"shiftrox","permlink":"z3ixdx6r","frontend_app":"snapie-mobile","views":6,"createdAt":"2026-02-06T20:07:00.846Z","thumbnail_url":"https://ipfs.3speak.tv/ipfs/QmdFhE5J4rS3nNkn12FRrdCzy21JgXhAeYnpAMDVEcaw4V","embed_url":"@shiftrox/snap-1770408708668","embed_title":"Comment"},{"owner":"abkadd26","permlink":"6bt6d1gf","frontend_app":"snapie-mobile","views":1,"createdAt":"2026-02-01T19:30:36.272Z","thumbnail_url":"https://ipfs.3speak.tv/ipfs/QmSkLKqv8hmyTUA1ASP6wBrx7rNkAkiekXMgyMUt9HGwpv","embed_url":"@abkadd26/snap-1769974351838","embed_title":"Comment"},{"owner":"coldbeetrootsoup","permlink":"sq07ssg2","frontend_app":"snapie","views":109,"createdAt":"2026-02-01T17:34:47.934Z","thumbnail_url":"https://images.hive.blog/DQmU7wWywLNRgSHDeYcu13pfNAd6rwrkKtCy9vboLFaxEXM/Minigunner%20Leg%20Day.mp4_thumb.jpg","embed_url":"@coldbeetrootsoup/20260201t173811898z","embed_title":"Comment"},{"owner":"novef85","permlink":"3m1dwiwq","frontend_app":"snapie","views":25,"createdAt":"2026-02-06T08:02:04.854Z","thumbnail_url":"https://images.hive.blog/DQmbYi3DXLb2fB4Fxboi4hcb96XwMhzxEEjtpvoe47A9zGu/1000135825.mp4_thumb.jpg","embed_url":"@novef85/20260206t080229834z","embed_title":"Comment"},{"owner":"sergiomendes","permlink":"zr9fp02p","frontend_app":"snapie-mobile","views":1,"createdAt":"2026-02-06T01:02:27.608Z","thumbnail_url":"https://ipfs.3speak.tv/ipfs/QmdkyRKfwRzJSgWNXALovCQfG7YqaZH8JsxhW4B2F9CeYU","embed_url":"@sergiomendes/snap-1770339774628","embed_title":"Comment"}]}